…
Transformasi Data menggunakan paket dplyr, bagian dari tidyverse. 
Ilustrasi data dari paket nycflights13 dan menggunakan ggplot2 untuk membantu memahami data.
Penjelasan ini diambil dari buku R for Data Science pada laman https://r4ds.had.co.nz/transform.html

```{r}
library(nycflights13)
library(tidyverse)
```
nycflights13 :: flight merupakan  data  berisi  336.776 penerbangan yang berangkat dari Kota New York pada tahun 2013. Data tersebut berasal dari Biro Statistik Transportasi AS, dan didokumentasikan dalam ?flights
```{r}
flights
#> # A tibble: 336,776 x 19
#>    year month   day dep_time sched_dep_time dep_delay arr_time sched_arr_time
#>   <int> <int> <int>    <int>          <int>     <dbl>    <int>          <int>
#> 1  2013     1     1      517            515         2      830            819
#> 2  2013     1     1      533            529         4      850            830
#> 3  2013     1     1      542            540         2      923            850
#> 4  2013     1     1      544            545        -1     1004           1022
#> 5  2013     1     1      554            600        -6      812            837
#> 6  2013     1     1      554            558        -4      740            728
#> # … with 336,770 more rows, and 11 more variables: arr_delay <dbl>,
#> #   carrier <chr>, flight <int>, tailnum <chr>, origin <chr>, dest <chr>,
#> #   air_time <dbl>, distance <dbl>, hour <dbl>, minute <dbl>, time_hour <dttm>
```
filter () digunakan untuk membuat subset pengamatan berdasarkan nilainya.  Misalnya, dipilih semua penerbangan pada tanggal 1 Januari dengan:
```{r}
filter(flights, month == 1, day == 1)
#> # A tibble: 842 x 19
#>    year month   day dep_time sched_dep_time dep_delay arr_time sched_arr_time
#>   <int> <int> <int>    <int>          <int>     <dbl>    <int>          <int>
#> 1  2013     1     1      517            515         2      830            819
#> 2  2013     1     1      533            529         4      850            830
#> 3  2013     1     1      542            540         2      923            850
#> 4  2013     1     1      544            545        -1     1004           1022
#> 5  2013     1     1      554            600        -6      812            837
#> 6  2013     1     1      554            558        -4      740            728
#> # … with 836 more rows, and 11 more variables: arr_delay <dbl>, carrier <chr>,
#> #   flight <int>, tailnum <chr>, origin <chr>, dest <chr>, air_time <dbl>,
#> #   distance <dbl>, hour <dbl>, minute <dbl>, time_hour <dttm>

```
Jika ingin menyimpan hasil hasil filter maka dapat menggunakan oeprator <- 
```{r}
jan1 <- filter(flights, month == 1, day == 1)
```
R dapat menampilkan hasil filter maupun menyimpan dalam varibel, untuk menggunakan keduanya maka :

```{r}
(dec25 <- filter(flights, month == 12, day == 25))
#> # A tibble: 719 x 19
#>    year month   day dep_time sched_dep_time dep_delay arr_time sched_arr_time
#>   <int> <int> <int>    <int>          <int>     <dbl>    <int>          <int>
#> 1  2013    12    25      456            500        -4      649            651
#> 2  2013    12    25      524            515         9      805            814
#> 3  2013    12    25      542            540         2      832            850
#> 4  2013    12    25      546            550        -4     1022           1027
#> 5  2013    12    25      556            600        -4      730            745
#> 6  2013    12    25      557            600        -3      743            752
#> # … with 713 more rows, and 11 more variables: arr_delay <dbl>, carrier <chr>,
#> #   flight <int>, tailnum <chr>, origin <chr>, dest <chr>, air_time <dbl>,
#> #   distance <dbl>, hour <dbl>, minute <dbl>, time_hour <dttm>
```
…
dapat pula digunakan hukum De Morgan:! (X & y) sama dengan! X | ! y, dan! (x | y) sama dengan! x &! y. Misalnya, jika ingin menemukan penerbangan yang tidak ditunda (pada kedatangan atau keberangkatan) lebih dari dua jam, maka dapat menggunakan salah satu dari dua filter berikut :

```{r}
filter(flights, !(arr_delay > 120 | dep_delay > 120))
filter(flights, arr_delay <= 120, dep_delay <= 120)
```
arrange () digunakan untuk mengurutkan tampilan data :

```{r}
arrange(flights, year, month, day)
#> # A tibble: 336,776 x 19
#>    year month   day dep_time sched_dep_time dep_delay arr_time sched_arr_time
#>   <int> <int> <int>    <int>          <int>     <dbl>    <int>          <int>
#> 1  2013     1     1      517            515         2      830            819
#> 2  2013     1     1      533            529         4      850            830
#> 3  2013     1     1      542            540         2      923            850
#> 4  2013     1     1      544            545        -1     1004           1022
#> 5  2013     1     1      554            600        -6      812            837
#> 6  2013     1     1      554            558        -4      740            728
#> # … with 336,770 more rows, and 11 more variables: arr_delay <dbl>,
#> #   carrier <chr>, flight <int>, tailnum <chr>, origin <chr>, dest <chr>,
#> #   air_time <dbl>, distance <dbl>, hour <dbl>, minute <dbl>, time_hour <dttm>
```
desc()digunakan untuk urutan menurun 

```{r}
arrange(flights, desc(dep_delay))
#> # A tibble: 336,776 x 19
#>    year month   day dep_time sched_dep_time dep_delay arr_time sched_arr_time
#>   <int> <int> <int>    <int>          <int>     <dbl>    <int>          <int>
#> 1  2013     1     9      641            900      1301     1242           1530
#> 2  2013     6    15     1432           1935      1137     1607           2120
#> 3  2013     1    10     1121           1635      1126     1239           1810
#> 4  2013     9    20     1139           1845      1014     1457           2210
#> 5  2013     7    22      845           1600      1005     1044           1815
#> 6  2013     4    10     1100           1900       960     1342           2211
#> # … with 336,770 more rows, and 11 more variables: arr_delay <dbl>,
#> #   carrier <chr>, flight <int>, tailnum <chr>, origin <chr>, dest <chr>,
#> #   air_time <dbl>, distance <dbl>, hour <dbl>, minute <dbl>, time_hour <dttm>
```
…
```{r}
# Select columns by name
select(flights, year, month, day)
#> # A tibble: 336,776 x 3
#>    year month   day
#>   <int> <int> <int>
#> 1  2013     1     1
#> 2  2013     1     1
#> 3  2013     1     1
#> 4  2013     1     1
#> 5  2013     1     1
#> 6  2013     1     1
#> # … with 336,770 more rows
# Select all columns between year and day (inclusive)
select(flights, year:day)
#> # A tibble: 336,776 x 3
#>    year month   day
#>   <int> <int> <int>
#> 1  2013     1     1
#> 2  2013     1     1
#> 3  2013     1     1
#> 4  2013     1     1
#> 5  2013     1     1
#> 6  2013     1     1
#> # … with 336,770 more rows
# Select all columns except those from year to day (inclusive)
select(flights, -(year:day))
#> # A tibble: 336,776 x 16
#>   dep_time sched_dep_time dep_delay arr_time sched_arr_time arr_delay carrier
#>      <int>          <int>     <dbl>    <int>          <int>     <dbl> <chr>  
#> 1      517            515         2      830            819        11 UA     
#> 2      533            529         4      850            830        20 UA     
#> 3      542            540         2      923            850        33 AA     
#> 4      544            545        -1     1004           1022       -18 B6     
#> 5      554            600        -6      812            837       -25 DL     
#> 6      554            558        -4      740            728        12 UA     
#> # … with 336,770 more rows, and 9 more variables: flight <int>, tailnum <chr>,
#> #   origin <chr>, dest <chr>, air_time <dbl>, distance <dbl>, hour <dbl>,
#> #   minute <dbl>, time_hour <dttm>
```
rename () yang merupakan varian dari select () dapat digunakan untuk menyimpan semua variabel yang tidak disebutkan secara eksplisit 
```{r}
rename(flights, tail_num = tailnum)
#> # A tibble: 336,776 x 19
#>    year month   day dep_time sched_dep_time dep_delay arr_time sched_arr_time
#>   <int> <int> <int>    <int>          <int>     <dbl>    <int>          <int>
#> 1  2013     1     1      517            515         2      830            819
#> 2  2013     1     1      533            529         4      850            830
#> 3  2013     1     1      542            540         2      923            850
#> 4  2013     1     1      544            545        -1     1004           1022
#> 5  2013     1     1      554            600        -6      812            837
#> 6  2013     1     1      554            558        -4      740            728
#> # … with 336,770 more rows, and 11 more variables: arr_delay <dbl>,
#> #   carrier <chr>, flight <int>, tail_num <chr>, origin <chr>, dest <chr>,
#> #   air_time <dbl>, distance <dbl>, hour <dbl>, minute <dbl>, time_hour <dttm>
```
Menggunakan select () bersama dengan helper everything ()dapat digunakan untuk memindahkan variabel ke awal bingkai data.
```{r}
select(flights, time_hour, air_time, everything())
#> # A tibble: 336,776 x 19
#>   time_hour           air_time  year month   day dep_time sched_dep_time
#>   <dttm>                 <dbl> <int> <int> <int>    <int>          <int>
#> 1 2013-01-01 05:00:00      227  2013     1     1      517            515
#> 2 2013-01-01 05:00:00      227  2013     1     1      533            529
#> 3 2013-01-01 05:00:00      160  2013     1     1      542            540
#> 4 2013-01-01 05:00:00      183  2013     1     1      544            545
#> 5 2013-01-01 06:00:00      116  2013     1     1      554            600
#> 6 2013-01-01 05:00:00      150  2013     1     1      554            558
#> # … with 336,770 more rows, and 12 more variables: dep_delay <dbl>,
#> #   arr_time <int>, sched_arr_time <int>, arr_delay <dbl>, carrier <chr>,
#> #   flight <int>, tailnum <chr>, origin <chr>, dest <chr>, distance <dbl>,
#> #   hour <dbl>, minute <dbl>
```
mutate () digunakan untuk menambahkan kolom baru yang merupakan fungsi dari kolom yang ada 
```{r}
flights_sml <- select(flights, 
  year:day, 
  ends_with("delay"), 
  distance, 
  air_time
)
mutate(flights_sml,
  gain = dep_delay - arr_delay,
  speed = distance / air_time * 60
)
#> # A tibble: 336,776 x 9
#>    year month   day dep_delay arr_delay distance air_time  gain speed
#>   <int> <int> <int>     <dbl>     <dbl>    <dbl>    <dbl> <dbl> <dbl>
#> 1  2013     1     1         2        11     1400      227    -9  370.
#> 2  2013     1     1         4        20     1416      227   -16  374.
#> 3  2013     1     1         2        33     1089      160   -31  408.
#> 4  2013     1     1        -1       -18     1576      183    17  517.
#> 5  2013     1     1        -6       -25      762      116    19  394.
#> 6  2013     1     1        -4        12      719      150   -16  288.
#> # … with 336,770 more rows
```
mutate () merujuk pada kolom yang baru dibuat 
```{r}
mutate(flights_sml,
  gain = dep_delay - arr_delay,
  hours = air_time / 60,
  gain_per_hour = gain / hours
)
#> # A tibble: 336,776 x 10
#>    year month   day dep_delay arr_delay distance air_time  gain hours
#>   <int> <int> <int>     <dbl>     <dbl>    <dbl>    <dbl> <dbl> <dbl>
#> 1  2013     1     1         2        11     1400      227    -9  3.78
#> 2  2013     1     1         4        20     1416      227   -16  3.78
#> 3  2013     1     1         2        33     1089      160   -31  2.67
#> 4  2013     1     1        -1       -18     1576      183    17  3.05
#> 5  2013     1     1        -6       -25      762      116    19  1.93
#> 6  2013     1     1        -4        12      719      150   -16  2.5 
#> # … with 336,770 more rows, and 1 more variable: gain_per_hour <dbl>
```
transmute () digunakan untuk menyimpan pada variabel baru
```{r}
transmute(flights,
  gain = dep_delay - arr_delay,
  hours = air_time / 60,
  gain_per_hour = gain / hours
)
#> # A tibble: 336,776 x 3
#>    gain hours gain_per_hour
#>   <dbl> <dbl>         <dbl>
#> 1    -9  3.78         -2.38
#> 2   -16  3.78         -4.23
#> 3   -31  2.67        -11.6 
#> 4    17  3.05          5.57
#> 5    19  1.93          9.83
#> 6   -16  2.5          -6.4 
#> # … with 336,770 more rows
```

Fungsi untuk membuat variabel baru yang bisa digunakan dengan mutate ().
Aritmatika modular:% /% (pembagian bilangan bulat) dan %% (sisa), di mana x == y * (x% /% y) + (x %% y).
Aritmatika modular adalah alat praktis karena memungkinkan  memecah bilangan bulat menjadi beberapa bagian misalnya menghitung waktu (jam dan menit) pada tiap penerbangan  : 

```{r}
transmute(flights,
  dep_time,
  hour = dep_time %/% 100,
  minute = dep_time %% 100
)
#> # A tibble: 336,776 x 3
#>   dep_time  hour minute
#>      <int> <dbl>  <dbl>
#> 1      517     5     17
#> 2      533     5     33
#> 3      542     5     42
#> 4      544     5     44
#> 5      554     5     54
#> 6      554     5     54
#> # … with 336,770 more rows
```
…
```
summerize() digunakan untuk menampilkan data dalam 1 baris
```{r}
summarise(flights, delay = mean(dep_delay, na.rm = TRUE))
#> # A tibble: 1 x 1
#>   delay
#>   <dbl>
#> 1  12.6
```
summarize() harus digunakan dengan group by(). Misal menampilkan data delay pada hari tertentu dengan perintah group by() :
```{r}
by_day <- group_by(flights, year, month, day)
summarise(by_day, delay = mean(dep_delay, na.rm = TRUE))
#> `summarise()` regrouping output by 'year', 'month' (override with `.groups` argument)
#> # A tibble: 365 x 4
#> # Groups:   year, month [12]
#>    year month   day delay
#>   <int> <int> <int> <dbl>
#> 1  2013     1     1 11.5 
#> 2  2013     1     2 13.9 
#> 3  2013     1     3 11.0 
#> 4  2013     1     4  8.95
#> 5  2013     1     5  5.73
#> 6  2013     1     6  7.15
#> # … with 359 more rows
```
…
Missing value (NA) harus ditulis dengan na.rm agar data NA tidak ditampilkan : 
```{r}
flights %>% 
  group_by(year, month, day) %>% 
  summarise(mean = mean(dep_delay, na.rm = TRUE))
#> `summarise()` regrouping output by 'year', 'month' (override with `.groups` argument)
#> # A tibble: 365 x 4
#> # Groups:   year, month [12]
#>    year month   day  mean
#>   <int> <int> <int> <dbl>
#> 1  2013     1     1 11.5 
#> 2  2013     1     2 13.9 
#> 3  2013     1     3 11.0 
#> 4  2013     1     4  8.95
#> 5  2013     1     5  5.73
#> 6  2013     1     6  7.15
#> # … with 359 more rows
```
```{r}
flights %>% 
  group_by(year, month, day) %>% 
  summarise(mean = mean(dep_delay, na.rm = TRUE))
#> `summarise()` regrouping output by 'year', 'month' (override with `.groups` argument)
#> # A tibble: 365 x 4
#> # Groups:   year, month [12]
#>    year month   day  mean
#>   <int> <int> <int> <dbl>
#> 1  2013     1     1 11.5 
#> 2  2013     1     2 13.9 
#> 3  2013     1     3 11.0 
#> 4  2013     1     4  8.95
#> 5  2013     1     5  5.73
#> 6  2013     1     6  7.15
#> # … with 359 more rows
```
```{r}
not_cancelled <- flights %>% 
  filter(!is.na(dep_delay), !is.na(arr_delay))

not_cancelled %>% 
  group_by(year, month, day) %>% 
  summarise(mean = mean(dep_delay))
#> `summarise()` regrouping output by 'year', 'month' (override with `.groups` argument)
#> # A tibble: 365 x 4
#> # Groups:   year, month [12]
#>    year month   day  mean
#>   <int> <int> <int> <dbl>
#> 1  2013     1     1 11.4 
#> 2  2013     1     2 13.7 
#> 3  2013     1     3 10.9 
#> 4  2013     1     4  8.97
#> 5  2013     1     5  5.73
#> 6  2013     1     6  7.15
#> # … with 359 more rows
```
…
```{r}
not_cancelled %>% 
  group_by(year, month, day) %>% 
  summarise(
    avg_delay1 = mean(arr_delay),
    avg_delay2 = mean(arr_delay[arr_delay > 0]) # the average positive delay
  )
#> `summarise()` regrouping output by 'year', 'month' (override with `.groups` argument)
#> # A tibble: 365 x 5
#> # Groups:   year, month [12]
#>    year month   day avg_delay1 avg_delay2
#>   <int> <int> <int>      <dbl>      <dbl>
#> 1  2013     1     1      12.7        32.5
#> 2  2013     1     2      12.7        32.0
#> 3  2013     1     3       5.73       27.7
#> 4  2013     1     4      -1.93       28.3
#> 5  2013     1     5      -1.53       22.6
#> 6  2013     1     6       4.24       24.4
#> # … with 359 more rows
```
Ukuran penyebaran: sd (x), IQR (x), mad (x). Deviasi kuadrat rata-rata akar, atau deviasi standar sd (x), adalah ukuran standar penyebaran. Rentang interkuartil IQR (x) dan deviasi absolut median mad (x) adalah padanan kuat yang mungkin lebih berguna jika Anda memiliki data terpencil

```{r}
# Why is distance to some destinations more variable than to others?
not_cancelled %>% 
  group_by(dest) %>% 
  summarise(distance_sd = sd(distance)) %>% 
  arrange(desc(distance_sd))
#> `summarise()` ungrouping output (override with `.groups` argument)
#> # A tibble: 104 x 2
#>   dest  distance_sd
#>   <chr>       <dbl>
#> 1 EGE         10.5 
#> 2 SAN         10.4 
#> 3 SFO         10.2 
#> 4 HNL         10.0 
#> 5 SEA          9.98
#> 6 LAS          9.91
#> # … with 98 more rows
```
Ukuran peringkat: min (x), kuantil (x, 0.25), max (x). Kuantil adalah generalisasi dari median. Misalnya, kuantil (x, 0.25) akan menemukan nilai x yang lebih besar dari 25% nilai, dan kurang dari 75% sisanya
```{r}
# When do the first and last flights leave each day?
not_cancelled %>% 
  group_by(year, month, day) %>% 
  summarise(
    first = min(dep_time),
    last = max(dep_time)
  )
#> `summarise()` regrouping output by 'year', 'month' (override with `.groups` argument)
#> # A tibble: 365 x 5
#> # Groups:   year, month [12]
#>    year month   day first  last
#>   <int> <int> <int> <int> <int>
#> 1  2013     1     1   517  2356
#> 2  2013     1     2    42  2354
#> 3  2013     1     3    32  2349
#> 4  2013     1     4    25  2358
#> 5  2013     1     5    14  2357
#> 6  2013     1     6    16  2355
#> # … with 359 more rows
```
Ukuran posisi: first (x), n (x, 2), last (x), mirip dengan x [1], x [2], dan x [length (x)] tetapi dapat menetapkan nilai default jika posisi itu tidak ada (yaitujika mencoba mendapatkan elemen ke-3 dari grup yang hanya memiliki dua elemen). Misalnya, kita dapat menemukan keberangkatan pertama dan terakhir untuk setiap hari: 
```{r}
not_cancelled %>% 
  group_by(year, month, day) %>% 
  summarise(
    first_dep = first(dep_time), 
    last_dep = last(dep_time)
  )
#> `summarise()` regrouping output by 'year', 'month' (override with `.groups` argument)
#> # A tibble: 365 x 5
#> # Groups:   year, month [12]
#>    year month   day first_dep last_dep
#>   <int> <int> <int>     <int>    <int>
#> 1  2013     1     1       517     2356
#> 2  2013     1     2        42     2354
#> 3  2013     1     3        32     2349
#> 4  2013     1     4        25     2358
#> 5  2013     1     5        14     2357
#> 6  2013     1     6        16     2355
#> # … with 359 more rows
```
 n_distinct (x) digunakan untuk menghitung jumlah nilai berbeda atau unik, misal :
 
```{r}
# Which destinations have the most carriers?
not_cancelled %>% 
  group_by(dest) %>% 
  summarise(carriers = n_distinct(carrier)) %>% 
  arrange(desc(carriers))
#> `summarise()` ungrouping output (override with `.groups` argument)
#> # A tibble: 104 x 2
#>   dest  carriers
#>   <chr>    <int>
#> 1 ATL          7
#> 2 BOS          7
#> 3 CLT          7
#> 4 ORD          7
#> 5 TPA          7
#> 6 AUS          6
#> # … with 98 more rows
```
…
